{
    "editor": [
        {
            "icon": "",
            "key": "preGameScreen",
            "header": "PreGameScreen",
            "disabled": false,
            "fields": [
                {
                    "key": "titleText",
                    "header": "Title Text",
                    "type": "text"
                },
                {
                    "key": "titleTextSize",
                    "header": "Title text size",
                    "type": "range",
                    "options": {
                        "minValue": 20,
                        "maxValue": 40,
                        "stepSize": "1"
                    }
                },
                {
                    "key": "playButtonText",
                    "header": "Play Button Text",
                    "type": "text"
                },
                {
                    "key": "buttonTextColor",
                    "header": "Play Button Text Color",
                    "type": "color"
                },
                {
                    "key": "backgroundImage",
                    "header": "Background Image",
                    "type": "image"
                },
                {
                    "key": "titleImage",
                    "header": "Header Image",
                    "type": "image"
                },
                {
                    "key": "titleImageSize",
                    "header": "Header image size",
                    "type": "range",
                    "options": {
                        "minValue": 150,
                        "maxValue": 400,
                        "stepSize": "1"
                    }
                },
                {
                    "key": "cardColor",
                    "header": "Card Color",
                    "type": "color"
                },
                {
                    "key": "buttonColor",
                    "header": "Play Button Color",
                    "type": "color"
                },
                {
                    "key": "fontFamily",
                    "header": "Google Font Name",
                    "type": "text"
                },
                {
                    "key": "showLeaderboardButton",
                    "header": "Show leaderboard button",
                    "type": "boolean"
                },
                {
                    "key": "leaderboardButtonText",
                    "header": "Leaderboard button text",
                    "type": "text"
                },
                {
                    "key": "showSoundButton",
                    "header": "Show sound button",
                    "type": "boolean"
                },
                {
                    "key": "soundEnabledIcon",
                    "type": "image",
                    "header": "Sound enabled icon"
                },
                {
                    "key": "soundDisabledIcon",
                    "type": "image",
                    "header": "Sound disabled icon"
                }
            ]
        },
        {
            "icon": "",
            "key": "settings",
            "header": "Game Settings",
            "disabled": false,
            "fields": [
                {
                    "key": "instructions1",
                    "type": "text",
                    "header": "Instructions Text 1"
                },
                {
                    "key": "instructions2",
                    "type": "text",
                    "header": "Instructions Text 2"
                },
                {
                    "key": "instructions3",
                    "type": "text",
                    "header": "Instructions Text 3"
                },
                {
                    "key": "textColor",
                    "header": "In Game Text Color",
                    "type": "color"
                },
                {
                    "key": "block",
                    "header": "Block Image",
                    "type": "image"
                },
                {
                    "key": "showPlayer",
                    "header": "Show player over platform",
                    "type": "boolean"
                },
                {
                    "key": "idle",
                    "header": "Player idle sprite",
                    "type": "image"
                },
                {
                    "key": "jump",
                    "header": "Player jump sprite",
                    "type": "image"
                },
                {
                    "key": "blockSize",
                    "type": "range",
                    "header": "Block size",
                    "options": {
                        "minValue": 30,
                        "maxValue": 60,
                        "stepSize": "0.1"
                    }
                },
                {
                    "key": "blockCount",
                    "header": "Block count",
                    "type": "range",
                    "options": {
                        "minValue": 3,
                        "maxValue": 6,
                        "stepSize": 1
                    }
                },
                {
                    "key": "depth",
                    "header": "Show depth effect",
                    "type": "boolean"
                },
                {
                    "key": "fixedLength",
                    "header": "Fixed game length",
                    "type": "boolean"
                },
                {
                    "key": "gameLength",
                    "header": "Game length",
                    "type": "range",
                    "options": {
                        "minValue": 5,
                        "maxValue": 60,
                        "stepSize": "1"
                    }
                },
                {
                    "key": "tap",
                    "header": "Tap sound effect",
                    "type": "sound"
                },
                {
                    "key": "theme",
                    "header": "Background Music",
                    "type": "sound"
                },
                {
                    "key": "lose",
                    "header": "Lose sound effect",
                    "type": "sound"
                },
                {
                    "key": "volume",
                    "header": "Background music volume",
                    "type": "range",
                    "options": {
                        "minValue": 0,
                        "maxValue": 1,
                        "stepSize": "0.1"
                    }
                },
                {
                    "key": "showComboText",
                    "header": "Show text when performing a combo",
                    "type": "boolean"
                },
                {
                    "key": "comboTextColor",
                    "header": "Combo text color",
                    "type": "color"
                },
                {
                    "key": "comboTexts",
                    "header": "Combo texts",
                    "type": "array",
                    "fields": [
                        {
                            "key": "i1",
                            "header": "1",
                            "type": "text"
                        },
                        {
                            "key": "i2",
                            "header": "2",
                            "type": "text"
                        },
                        {
                            "key": "i3",
                            "header": "3",
                            "type": "text"
                        },
                        {
                            "key": "i4",
                            "header": "4",
                            "type": "text"
                        }
                    ]
                }
            ]
        },
        {
            "icon": "",
            "key": "postGameScreen",
            "header": "Post Game Screen",
            "disabled": false,
            "fields": [
                {
                    "key": "scoreText",
                    "header": "Text before score",
                    "type": "text"
                },
                {
                    "key": "textColor",
                    "header": "Text Color",
                    "type": "color"
                },
                {
                    "key": "buttonTextColor",
                    "header": "Button text color",
                    "type": "color"
                },
                {
                    "key": "cardColor",
                    "header": "Card Background Color",
                    "type": "color"
                },
                {
                    "key": "playButtonText",
                    "header": "Play again button text",
                    "type": "text"
                },
                {
                    "key": "buttonColor",
                    "header": "Buttons color",
                    "type": "color"
                },
                {
                    "key": "buttonTextColor",
                    "header": "Buttons text color",
                    "type": "color"
                },
                {
                    "key": "showText",
                    "header": "Show custom text",
                    "type": "boolean"
                },
                {
                    "key": "customText",
                    "header": "Custom text",
                    "type": "text"
                },
                {
                    "key": "submitName",
                    "header": "Show name field",
                    "type": "boolean"
                },
                {
                    "key": "submitEmail",
                    "header": "Show email field",
                    "type": "boolean"
                },
                {
                    "key": "submitScoreText",
                    "header": "Submit score button text",
                    "type": "text"
                },
                {
                    "key": "showLeadeboardButtonPostGameScreen",
                    "header": "Show Leadeboard Button",
                    "type": "boolean"
                },
                {
                    "key": "leaderboardButtonText",
                    "type": "text",
                    "header": "Leadeboard button text"
                },
                {
                    "key": "showCTA",
                    "header": "Show CTA Button",
                    "type": "boolean"
                },
                {
                    "key": "ctaText",
                    "header": "CTA text",
                    "type": "text"
                },
                {
                    "key": "ctaButtonText",
                    "header": "CTA button text",
                    "type": "text"
                },
                {
                    "key": "ctaUrl",
                    "header": "CTA Link",
                    "type": "text"
                }
            ]
        }
    ],
    "config": {
        "preGameScreen": {
            "titleText": "Stacker",
            "titleTextSize": 30,
            "playButtonText": "Play",
            "cardColor": "#ffffff",
            "buttonColor": "#000000",
            "buttonTextColor": "#ffffff",
            "backgroundImage": "http://playcent.com/protected/asset/8616f9189da04d0a991d5ab8a74bb0a9",
            "titleImage": "http://playcent.com/protected/asset/74b21c2bdfbc4279b27a0c17c8a8f82b",
            "titleImageSize": 200,
            "fontFamily": "Balsamiq Sans",
            "showLeaderboardButton": true,
            "leaderboardButtonText": "Leadeboard",
            "showSoundButton": true,
            "soundEnabledIcon": "http://playcent.com/protected/stacker/sound_on.png",
            "soundDisabledIcon": "http://playcent.com/protected/stacker/sound_off.png"
        },
        "settings": {
            "instructions1": "Tap / Spacebar to place blocks",
            "instructions2": "Place new blocks over the old ones",
            "instructions3": "Have fun!",
            "textColor": "#000",
            "theme": "http://playcent.com/protected/asset/de89793bc70943779c1d09fcb2d3cee8",
            "volume": "0.7",
            "block": "http://playcent.com/protected/asset/09ec107c176340a69f61203c213f5bc7",
            "blockSize": 40,
            "blockCount": 4,
            "showPlayer": true,
            "idle": "http://playcent.com/protected/asset/81a924c3abc24e3c871062528f443a49",
            "jump": "http://playcent.com/protected/asset/c6b6b8bf0e274f8baa57f3b08101da00",
            "depth": true,
            "fixedLength": true,
            "gameLength": 15,
            "showComboText": true,
            "comboTextColor": "#1d39d7",
            "comboTexts": {
                "i1": "Nice!",
                "i2": "Keep up!",
                "i3": "Great!",
                "i4": "Perfect!"
            },
            "tap": "http://playcent.com/protected/asset/90525db6d398442d8c3bee31e73c7d0f",
            "lose": "http://playcent.com/protected/stacker/lose.wav"
        },
        "postGameScreen": {
            "scoreText": "Your score is: ",
            "playButtonText": "Play Again",
            "buttonColor": "#000000",
            "cardColor": "#ffffff",
            "textColor": "#000000",
            "buttonTextColor": "#ffffff",
            "showLeadeboardButtonPostGameScreen": true,
            "submitScoreText": "Submit score",
            "leaderboardButtonText": "Leaderboard",
            "showText": true,
            "customText": "Hello world",
            "submitName": true,
            "submitEmail": true,
            "showCTA": true,
            "ctaText": "Check out our page for more",
            "ctaButtonText": "Go to Playcent",
            "ctaUrl": "http://playcent.com/browser/#/home"
        }
    }
}